%YAML 1.1
%TAG !u! tag:unity3d.com,2011:
--- !u!114 &11400000
MonoBehaviour:
  m_ObjectHideFlags: 0
  m_CorrespondingSourceObject: {fileID: 0}
  m_PrefabInstance: {fileID: 0}
  m_PrefabAsset: {fileID: 0}
  m_GameObject: {fileID: 0}
  m_Enabled: 1
  m_EditorHideFlags: 0
  m_Script: {fileID: 11500000, guid: 1b8d490804f6d0b4386e8d23b044107f, type: 3}
  m_Name: Combo2
  m_EditorClassIdentifier: 
  skillType: 0
  skillName: Combo2
  cost: 0
  recoverMP: 0
  damageHP: 50
  recoverHP: 0
  audio: {fileID: 0}
  launchTypeMagic: {fileID: 0}
  MagicParticle: {fileID: 0}
  MagicEffect: {fileID: 0}
  targets: 1
  generateType: 2
  checkPoint: 3
  abilityType: Combo2
