%YAML 1.1
%TAG !u! tag:unity3d.com,2011:
--- !u!114 &-6214274013289491185
MonoBehaviour:
  m_ObjectHideFlags: 11
  m_CorrespondingSourceObject: {fileID: 0}
  m_PrefabInstance: {fileID: 0}
  m_PrefabAsset: {fileID: 0}
  m_GameObject: {fileID: 0}
  m_Enabled: 1
  m_EditorHideFlags: 0
  m_Script: {fileID: 11500000, guid: d0353a89b1f911e48b9e16bdc9f2e058, type: 3}
  m_Name: 
  m_EditorClassIdentifier: 
  version: 1
--- !u!21 &2100000
Material:
  serializedVersion: 6
  m_ObjectHideFlags: 0
  m_CorrespondingSourceObject: {fileID: 0}
  m_PrefabInstance: {fileID: 0}
  m_PrefabAsset: {fileID: 0}
  m_Name: Skin_Basic
  m_Shader: {fileID: -6465566751694194690, guid: bf7310fd450dc9f4ab0d66691d75823a,
    type: 3}
  m_ShaderKeywords: BOOLEAN_936100C5_ON FRESNEL_ON _ENVIRONMENTREFLECTIONS_OFF _NORMALMAP
    _SPECULAR_SETUP _USEEMISSION_ON
  m_LightmapFlags: 2
  m_EnableInstancingVariants: 0
  m_DoubleSidedGI: 0
  m_CustomRenderQueue: -1
  stringTagMap:
    MotionVector: User
  disabledShaderPasses:
  - MOTIONVECTORS
  m_SavedProperties:
    serializedVersion: 3
    m_TexEnvs:
    - Texture2D_5DCB4424:
        m_Texture: {fileID: 2800000, guid: 1249d0d030fee2b4a9ac863299e766e0, type: 3}
        m_Scale: {x: 1, y: 1}
        m_Offset: {x: 0, y: 0}
    - Texture2D_A42A27D7:
        m_Texture: {fileID: 2800000, guid: f736710ec3fd2e945943d4d91bfb8201, type: 3}
        m_Scale: {x: 1, y: 1}
        m_Offset: {x: 0, y: 0}
    - Texture2D_DA3A4F25:
        m_Texture: {fileID: 2800000, guid: 9c33e52813bd2624ba7ef234e73c3062, type: 3}
        m_Scale: {x: 1, y: 1}
        m_Offset: {x: 0, y: 0}
    - Texture2D_FD995F67:
        m_Texture: {fileID: 2800000, guid: 42df4b3a096db384a8f701cea1f651ae, type: 3}
        m_Scale: {x: 1, y: 1}
        m_Offset: {x: 0, y: 0}
    - _AlbedoTex:
        m_Texture: {fileID: 2800000, guid: 1249d0d030fee2b4a9ac863299e766e0, type: 3}
        m_Scale: {x: 1, y: 1}
        m_Offset: {x: 0, y: 0}
    - _BaseMap:
        m_Texture: {fileID: 2800000, guid: 1249d0d030fee2b4a9ac863299e766e0, type: 3}
        m_Scale: {x: 1, y: 1}
        m_Offset: {x: 0, y: 0}
    - _BumpMap:
        m_Texture: {fileID: 2800000, guid: 0a0b4c84629664949a7e58d056183953, type: 3}
        m_Scale: {x: 1, y: 1}
        m_Offset: {x: 0, y: 0}
    - _DetailAlbedoMap:
        m_Texture: {fileID: 0}
        m_Scale: {x: 1, y: 1}
        m_Offset: {x: 0, y: 0}
    - _DetailMask:
        m_Texture: {fileID: 0}
        m_Scale: {x: 1, y: 1}
        m_Offset: {x: 0, y: 0}
    - _DetailNormalMap:
        m_Texture: {fileID: 0}
        m_Scale: {x: 1, y: 1}
        m_Offset: {x: 0, y: 0}
    - _EmissionMap:
        m_Texture: {fileID: 0}
        m_Scale: {x: 1, y: 1}
        m_Offset: {x: 0, y: 0}
    - _LightRamp:
        m_Texture: {fileID: 2800000, guid: 69445cc29188f3645a756a69c25e71a0, type: 3}
        m_Scale: {x: 1, y: 1}
        m_Offset: {x: 0, y: 0}
    - _MainTex:
        m_Texture: {fileID: 2800000, guid: 9c33e52813bd2624ba7ef234e73c3062, type: 3}
        m_Scale: {x: 1, y: 1}
        m_Offset: {x: 0, y: 0}
    - _MetallicGlossMap:
        m_Texture: {fileID: 2800000, guid: 95e6af5df68912247b95c8e3f7e7f4c4, type: 3}
        m_Scale: {x: 1, y: 1}
        m_Offset: {x: 0, y: 0}
    - _NormalTex:
        m_Texture: {fileID: 0}
        m_Scale: {x: 1, y: 1}
        m_Offset: {x: 0, y: 0}
    - _OcclusionMap:
        m_Texture: {fileID: 0}
        m_Scale: {x: 1, y: 1}
        m_Offset: {x: 0, y: 0}
    - _ParallaxMap:
        m_Texture: {fileID: 0}
        m_Scale: {x: 1, y: 1}
        m_Offset: {x: 0, y: 0}
    - _SpecGlossMap:
        m_Texture: {fileID: 0}
        m_Scale: {x: 1, y: 1}
        m_Offset: {x: 0, y: 0}
    - _Tex:
        m_Texture: {fileID: 2800000, guid: 1249d0d030fee2b4a9ac863299e766e0, type: 3}
        m_Scale: {x: 1, y: 1}
        m_Offset: {x: 0, y: 0}
    m_Floats:
    - BOOLEAN_936100C5: 1
    - Brightness: 0.31
    - Detail: 0.33
    - FRESNEL: 1
    - Strength: 0.5
    - Vector1_1102EDE7: 0.7
    - Vector1_1136AC48: 0.21
    - Vector1_1141FA8F: 0
    - Vector1_15EBF0FE: 32
    - Vector1_1676DA0E: 20
    - Vector1_3B1F9899: 0.1
    - Vector1_6C3D51: 1
    - Vector1_9F495AB1: 0
    - Vector1_ACE3DC43: 0.01
    - Vector1_BACC75BF: 0.2
    - Vector1_D5F845FF: 0.3
    - Vector1_F3C516E0: 0
    - _AlphaClip: 0
    - _Blend: 0
    - _Brightness: 0.06
    - _BumpScale: 1
    - _CelShadeMidPoint: 1
    - _CelShadeSoftness: 1
    - _Cull: 2
    - _Cutoff: 0.5
    - _Detail: 0.15
    - _DetailNormalMapScale: 1
    - _DirectLightMultiplier: 1
    - _DstBlend: 0
    - _EnvironmentReflections: 0
    - _GlossMapScale: 0
    - _Glossiness: 0
    - _GlossinessSource: 0
    - _GlossyReflections: 0
    - _IndirectLightMultiplier: 0.61
    - _Metallic: 0
    - _Mode: 0
    - _OcclusionStrength: 1
    - _OutlineWidth: 0.003
    - _Parallax: 0.02
    - _QueueOffset: 0
    - _ReceiveShadowMappingAmount: 0.5
    - _ReceiveShadows: 1
    - _RimStrength: 0.25
    - _Shininess: 0
    - _Smoothness: 0
    - _SmoothnessSource: 0
    - _SmoothnessTextureChannel: 0
    - _SpecSource: 0
    - _SpecularHighlights: 1
    - _SrcBlend: 1
    - _Strength: 1
    - _Surface: 0
    - _UVSec: 0
    - _UseAlphaClipping: 0
    - _UseEmission: 1
    - _WorkflowMode: 0
    - _ZWrite: 1
    m_Colors:
    - Color_2F0B050C: {r: 0, g: 0, b: 0, a: 0}
    - Color_3735F8DD: {r: 1, g: 1, b: 1, a: 0}
    - Color_3C1835FB: {r: 1, g: 1, b: 1, a: 0}
    - Color_5EEDE962: {r: 0.7924528, g: 0.7924528, b: 0.7924528, a: 0}
    - Color_9071021F: {r: 0.4056604, g: 0.3960929, b: 0.3960929, a: 0}
    - Color_C6C90F09: {r: 1, g: 1, b: 1, a: 0}
    - Color_CC0DF3B: {r: 1.046096, g: 1.046096, b: 1.046096, a: 1}
    - Color_CD940325: {r: 1, g: 1, b: 1, a: 1}
    - Color_F8B1093D: {r: 1, g: 1, b: 1, a: 0}
    - _BaseColor: {r: 0.745283, g: 0.745283, b: 0.745283, a: 1}
    - _Color: {r: 0.6698113, g: 0.6476949, b: 0.6476949, a: 1}
    - _EmissionColor: {r: 0, g: 0, b: 0, a: 1}
    - _EmissionMapChannelMask: {r: 1, g: 1, b: 1, a: 1}
    - _Groundcolor: {r: 0.5, g: 0.5, b: 0.5, a: 1}
    - _IndirectLightConstColor: {r: 0.8396226, g: 0.8396226, b: 0.8396226, a: 1}
    - _MainColor: {r: 1, g: 1, b: 1, a: 1}
    - _OutlineColor: {r: 0, g: 0, b: 0, a: 1}
    - _Skycolor: {r: 1, g: 1, b: 1, a: 1}
    - _SpecColor: {r: 0.26415092, g: 0.26415092, b: 0.26415092, a: 1}
    - _SpecularColor: {r: 0, g: 0, b: 0, a: 1}
    - _SpeculorColor: {r: 0, g: 0, b: 0, a: 1}
    - _Tint: {r: 1, g: 1, b: 1, a: 1}
